…
    ## Joining, by = "word"

Top 10 word appearances

``` r
tidy_poe %>% 
count(word, sort = TRUE)
```

    ## # A tibble: 22,807 x 2
    ##    word       n
    ##    <chr>  <int>
    ##  1 time     591
    ##  2 found    567
    ##  3 length   386
    ##  4 day      382
    ##  5 eyes     359
    ##  6 head     349
    ##  7 night    328
    ##  8 water    309
    ##  9 left     287
    ## 10 feet     280
    ## # ... with 22,797 more rows
…
``` r
tidy_bunyan <- bunyan_text %>%
  unnest_tokens(word, text) %>% 
  anti_join(stop_words)
```

    ## Joining, by = "word"

``` r
tidy_bunyan %>% 
count(word, sort = TRUE)
```

    ## # A tibble: 24,575 x 2
    ##    word       n
    ##    <chr>  <int>
    ##  1 god    18735
    ##  2 christ  9839
    ##  3 thou    8408
    ##  4 1       6266
    ##  5 thy     5825
    ##  6 lord    5561
    ##  7 2       5052
    ##  8 thee    4540
    ##  9 sin     4450
    ## 10 hath    4446
    ## # ... with 24,565 more rows

Using the AFINN sentiment dictionary, what is the sum sentiment score of the five documents from Poe.

``` r
get_sentiments('afinn')
```

    ## # A tibble: 2,476 x 2
    ##    word       score
    ##    <chr>      <int>
    ##  1 abandon       -2
    ##  2 abandoned     -2
    ##  3 abandons      -2
    ##  4 abducted      -2
    ##  5 abduction     -2
    ##  6 abductions    -2
    ##  7 abhor         -3
    ##  8 abhorred      -3
    ##  9 abhorrent     -3
    ## 10 abhors        -3
    ## # ... with 2,466 more rows
…
# find document-word counts
word_counts <- by_word %>%
  anti_join(stop_words) %>%
  count(title, word, sort = TRUE) %>%
  ungroup()
```

    ## Joining, by = "word"

``` r
word_counts
```

    ## # A tibble: 5,698 x 3
    ##    title             word          n
    ##    <chr>             <chr>     <int>
    ##  1 A Christmas Carol scrooge     327
    ##  2 A Christmas Carol christmas    96
    ##  3 A Christmas Carol ghost        91
    ##  4 A Christmas Carol spirit       86
    ##  5 A Christmas Carol time         68
    ##  6 A Christmas Carol cried        56
    ##  7 A Christmas Carol bob          49
    ##  8 A Christmas Carol scrooge's    48
    ##  9 A Christmas Carol door         45
    ## 10 A Christmas Carol hand         43
    ## # ... with 5,688 more rows
…
